Timestamp,Username,Mobile number (For ease of communication when necessary),Name and Surname,Organization,Position/Role,How did you hear about this workshop?,What is your level of knowledge of machine learning?,Hands-on practical training on the topics below will be covered during this workshop. Kindly indicate the topics you would be interested in attending.
2020/06/04 8:17:57 PM GMT+2,lonmats@gmail.com,2.64818E+11,Lonnie S Matsa,Nust,Student,Friend,Beginner,Linear regression;Logistic regression;Neural networks;Building dashboards
2020/06/04 9:08:33 PM GMT+2,musagabriel@yahoo.co.uk,813103254,Gabriel Musa,Nust,Student,Email,Intermediate,Neural networks;Building dashboards
2020/06/05 10:33:57 AM GMT+2,makuvazaauther1@gmail.com,815502980,Makuvaza,NUST,Student,Recieved a link from the organisers,Beginner,Linear regression;Logistic regression;Neural networks;Building dashboards
2020/06/05 10:48:39 AM GMT+2,ndeyataapopi@gmail.com,2.64815E+11,Ndeya Taapopi,Neptic Group,Industry,Email Invite,Beginner,Linear regression;Logistic regression;Neural networks;Building dashboards
2020/06/05 11:07:26 AM GMT+2,tulelar@gmail.com,816808214,Hileni Ihambo,NIPAM,Other (please mention below),email from NUST ,Beginner,Neural networks
2020/06/05 11:37:38 AM GMT+2,mamqeny10@gmail.com,814086944,Mamoqenelo,NUST,Student,Email,Beginner,Linear regression;Logistic regression;Neural networks;Building dashboards
2020/06/05 11:37:54 AM GMT+2,filippusnafuka@gmail.com,816618939,Filippus Nafuka ,Veterans Affairs ,Other (please mention below),Through email communication from NUST,Beginner,Linear regression;Logistic regression;Neural networks;Building dashboards
2020/06/05 11:51:32 AM GMT+2,hainguralucianofrans@gmail.com,856570600,Liciano Frans Haingura,NUST,Student,Post Graduate Seminar,Intermediate,Linear regression;Logistic regression;Neural networks;Building dashboards
2020/06/05 11:59:37 AM GMT+2,josypasy@gmail.com,812839245,Josephine Pasipanodya ,Unam ,Student,Through a network ,Beginner,Linear regression;Logistic regression;Neural networks;Building dashboards
2020/06/05 4:13:18 PM GMT+2,sk.anthonio@gmail.com,26771622018,Samuel Anthonio,Nambia University of Science and Technology,Student,Email,Beginner,Linear regression;Neural networks
2020/06/06 1:29:03 PM GMT+2,toivo_k@yahoo.com,2.64813E+11,Toivo Kamati,Office of the Prme Minister,Student,Received invitation from Nust Namibia,Intermediate,Linear regression;Neural networks
2020/06/07 11:47:25 AM GMT+2,jmuntuumo@nust.na,814063093,Josephina Muntuumo,Nust,Lecturer,WhatsApp ,Beginner,Linear regression;Logistic regression;Neural networks;Building dashboards
2020/06/07 11:55:34 AM GMT+2,jappiethomas15@gmail.com,814019649,Maria Thomas,NUST,Student,My Lecturer coveyed the message,Beginner,Neural networks
2020/06/07 12:06:12 PM GMT+2,armasnkandi101@gmail.com,816387106,Armas Nkandi ,NUST ,Student,Communicated through WhatsApp ,Beginner,Neural networks
2020/06/07 12:07:12 PM GMT+2,mkauhondamwa@gmail.com,816229267,Maria ,FNB,Industry,Friend ,Beginner,Linear regression;Logistic regression;Neural networks;Building dashboards
2020/06/07 12:08:01 PM GMT+2,morrisvatileni@gmail.com,815510971,Morris Vatileni ,None,Student,Though class whatsapp group,Beginner,Building dashboards
2020/06/07 12:11:10 PM GMT+2,kambongela@gmail.com,813216256,Lasarus Matheus ,Bachelor of Computer Science ,Student,Through a friend,Beginner,Linear regression;Logistic regression;Neural networks
2020/06/07 12:11:52 PM GMT+2,nekundieunike@gmail.com,817846614,Eunike Nekundi,NUST,Student,WhatsApp group,Intermediate,Linear regression;Logistic regression;Neural networks;Building dashboards
2020/06/07 12:13:22 PM GMT+2,thauwanga99@gmail.com,817234572,Twapandula Hauwanga ,NUST,Student,Through a lecturer ,Beginner,Linear regression;Neural networks;Building dashboards
2020/06/07 12:15:39 PM GMT+2,ramothibekeanu@gmail.com,2.64817E+11,Keanu Ramothibe,Home,Student,Lecturer,Beginner,Linear regression;Logistic regression;Neural networks
2020/06/07 12:23:59 PM GMT+2,tjitjirim@gmail.com,816072689,Tjitjiri Muharukua ,NUST ,Student,WhatsApp ,Beginner,Logistic regression;Neural networks;Building dashboards
2020/06/07 12:25:07 PM GMT+2,marthalulli@gmail.com,813625061,Martha Hweka ,IUM,Lecturer,"From Jovita Matheus's WhatsApp status, lecturer at NUST",Intermediate,Linear regression;Logistic regression;Neural networks;Building dashboards
2020/06/07 12:34:10 PM GMT+2,owenuchezuba@gmail.com,2.64814E+11,Owen Uchezuba ,NUST ,Student,Shared on Whatsapp ,Beginner,Neural networks
2020/06/07 1:25:46 PM GMT+2,makosaisaac@gmail.com,817080991,Isaac Makosa,NUST,Student,Saw on my instructor status,Beginner,Linear regression;Logistic regression;Neural networks;Building dashboards
2020/06/07 2:19:03 PM GMT+2,kalipaobet@gmail.com,812956653,Obet M Kalipa,Computing and informatics,Student,Via WhatsApp.,Beginner,Neural networks
2020/06/07 2:58:17 PM GMT+2,jjshatika@gmail.com,813648135,Joakim Joakim,MOD,Other (please mention below),Social Media,Intermediate,Logistic regression;Neural networks;Building dashboards
2020/06/07 3:11:49 PM GMT+2,vetaraka183@gmail.com,810419473,Vetara Kaurimuje,NUST,Student,WhatsApp Circulation,Beginner,Logistic regression;Neural networks;Building dashboards
2020/06/07 3:32:27 PM GMT+2,lahjahaidula26@gmail.com,812369180,Lahya Haidula,IUM,Student,Media ,Beginner,Linear regression;Logistic regression;Neural networks;Building dashboards
2020/06/07 3:45:03 PM GMT+2,tangenicoachlam@gmail.com,814526741,Matheus Julius Tangeni,Nust,Student,WhatsApp group ,Beginner,Linear regression;Logistic regression;Neural networks;Building dashboards
2020/06/07 3:58:57 PM GMT+2,pnnakadiva@gmail.com,2.64814E+11,Panduleni Nakadiva ,MONITRONIC ,Student,Through a friend,Beginner,Linear regression;Logistic regression;Neural networks;Building dashboards
2020/06/07 5:42:17 PM GMT+2,muna.kaurimuje@gmail.com,811474420,Vemuna Kaurimuje ,Namibia University of Science and Technology ,Student,Heard about it from lecturer.,Beginner,Linear regression;Logistic regression;Neural networks;Building dashboards
2020/06/07 7:37:40 PM GMT+2,christian.makanga98@gmail.com,2.64816E+11,Christian Makanga,NUST,Student,ISS-FT WHATSAPP GROUP ,Beginner,Linear regression;Logistic regression;Neural networks;Building dashboards
2020/06/07 9:43:21 PM GMT+2,shomwelet@gmail.com,27817214951,Thomas Shomwele,NUST,Lecturer,Advert,Intermediate,Neural networks
2020/06/07 10:21:31 PM GMT+2,olivierleeroy@gmail.com,814796361,Lee-Roy Olivier,Computer science cuber security 2nd year,Student,Friend,Beginner,Linear regression
2020/06/07 10:43:28 PM GMT+2,rjunias19@gmail.com,2.64853E+11,Rianne ,Namibian University of Science and Technology ,Student,WhatsApp group,Beginner,Linear regression;Logistic regression;Neural networks;Building dashboards
2020/06/07 10:45:09 PM GMT+2,rjunias19@gmail.com,2.64853E+11,Rianne ,Namibian University of Science and Technology ,Student,WhatsApp group,Beginner,Linear regression;Logistic regression;Neural networks;Building dashboards
2020/06/08 12:27:35 AM GMT+2,kutendanyamupfukudza23@gmail.com,817040634,Kutenda Nyamupfukudza ,Muhoko Organization ,Student,Through a friend ,Beginner,Building dashboards
2020/06/08 8:34:27 AM GMT+2,greyeno@gmail.com,853791908,Greyeno Rusberg ,NUST,Student,Email,Beginner,Neural networks
2020/06/08 9:01:52 AM GMT+2,klievettnicarlo@gmail.com,812352590,Klievett Abrahams ,Namibin university of science and technology ,Student,At the NUST website,Intermediate,Linear regression;Logistic regression;Neural networks;Building dashboards
2020/06/08 10:59:00 AM GMT+2,nnashandi@nust.na,818678032,Ndinelago Nashandi,NUST,Lecturer,email,Beginner,Linear regression;Logistic regression;Neural networks;Building dashboards
2020/06/08 11:06:24 AM GMT+2,jsilaa@nust.na,812991858,Julius Silaa,NUST,Lecturer,Email anoucement ,Intermediate,Linear regression;Logistic regression;Neural networks;Building dashboards
2020/06/08 12:03:34 PM GMT+2,fbshava@nust.na,832072510,Fungai Bhunu Shava,NUST,Student,FCI broadcast,Intermediate,Neural networks;Building dashboards
2020/06/08 12:07:38 PM GMT+2,tchikohora@nust.na,2.64814E+11,Teressa Chikohora,NUST,Lecturer,Faculty Announcements,Intermediate,Linear regression;Logistic regression;Neural networks;Building dashboards
2020/06/08 2:05:24 PM GMT+2,riipinge2303@gmail.com,816943400,Ruusa Ipinge,NUST,Lecturer,website,Intermediate,Linear regression;Logistic regression;Neural networks;Building dashboards
2020/06/08 3:02:20 PM GMT+2,inhamu@nust.na,813739496,Isaac Nhamu,Namibia University of Science and Technology,Lecturer,Email,Beginner,Linear regression;Logistic regression;Neural networks;Building dashboards
2020/06/08 3:07:21 PM GMT+2,andreassipeta@gmail.com,816851661,Andreas Sipeta,NUST,Student,My lecturer told me about it ,Beginner,Linear regression;Logistic regression;Building dashboards
2020/06/08 10:19:32 PM GMT+2,dolph9611@gmail.com,812429260,Dolph Angomo ,Namibia University of Science and Technology ,Student,Classes ,Beginner,Linear regression;Neural networks;Building dashboards
2020/06/08 10:34:08 PM GMT+2,ndahafas@gmail.com,2.64811E+11,Victoria Shafombabi,NUST,Student,Email,Beginner,Linear regression;Logistic regression;Neural networks;Building dashboards
2020/06/08 11:40:08 PM GMT+2,nabbygirl@gmail.com,856575549,Jessica Upani,NUST,Student,Email,Beginner,Linear regression;Logistic regression;Neural networks;Building dashboards
2020/06/10 2:46:19 PM GMT+2,blessing.sibanda@live.com,2.64816E+11,Blessing K. Sibanda,NUST,Student,Colleagues,Intermediate,Neural networks;Building dashboards
